<svg xmlns="http://www.w3.org/2000/svg" width="158.922" height="49.371" viewBox="0 0 158.922 49.371">
  <g id="Codematica2020" transform="translate(0 0)">
    <path id="Tracciato_1" data-name="Tracciato 1" d="M158.988,8.98v2.586h-.148c-.386.667-.158,1.226-.153,2.027-.4.109-.386-.445-.45,0-.138,1.795.732,3.644-.3,5.171-.213.559.712.42.6.92-.178.173-.8.064-.6.46.376,1.869-.331,4.049,0,6.279.089.574.494,1.147.608,1.75a30.621,30.621,0,0,1-.153,6.556c-.084-.163.183-.544-.148-.554-.183,4.524.391,10.328-.292,14.951,0-1.676-.267-3.164-.153-4.895-.989,1.978,0,4.914-.45,7.48a15.852,15.852,0,0,0,0,6.18c-.895,0-.692-.643-.751-1.29-.183-1.854.148-3.678,0-5.725-.47-6.3.465-13.438-.761-18.733.366-.544.494-1.617-.148-2.027v-.277c.569-.351.316.272.6.366.3-2.838-.761-7.624-.153-11.075.564-3.2-.129-6.9.143-10.333.376,0,.366-.208.6-.277h.148C157.712,8.653,158.7,8.6,158.988,8.98Zm-1.167,34.331c-.074-4.553-.272-9.245-.41-13.443,0-.544,0-1.078-.049-1.6,0,.524.03,1.058.049,1.6C157.45,34.432,156.916,39.583,157.821,43.311Z" transform="translate(-89.252 -8.52)" fill="#fff"/>
    <path id="Tracciato_2" data-name="Tracciato 2" d="M160.856,104.46c.554.208.326,1.305.153,1.661C160.658,105.75,160.954,104.984,160.856,104.46Z" transform="translate(-91.852 -57.027)"/>
    <path id="Tracciato_3" data-name="Tracciato 3" d="M160.54,95.954c-.608.035-.168-.578-.3-.836C160.847,95.084,160.4,95.7,160.54,95.954Z" transform="translate(-91.537 -52.303)"/>
    <path id="Tracciato_4" data-name="Tracciato 4" d="M160.27,99.61c.771,0,.949,1.31,0,1.29Z" transform="translate(-91.568 -54.575)"/>
    <path id="Tracciato_5" data-name="Tracciato 5" d="M33.8,47.05v2.541H27.268a3.073,3.073,0,0,0-2.507.949,4.847,4.847,0,0,0-.786,3.095,4.753,4.753,0,0,0,.786,3.08,3.147,3.147,0,0,0,2.507.934H33.8v2.566H27.02a5.468,5.468,0,0,1-4.178-1.622A6.932,6.932,0,0,1,21.31,53.65a6.994,6.994,0,0,1,1.533-4.944,5.468,5.468,0,0,1,4.178-1.622Z" transform="translate(-21.31 -28.001)" fill="#c62a20"/>
    <path id="Tracciato_6" data-name="Tracciato 6" d="M60.149,47.043a5.438,5.438,0,0,1,4.163,1.632,6.958,6.958,0,0,1,1.547,4.944c0,2.205-.494,3.881-1.547,4.944a5.468,5.468,0,0,1-4.163,1.622H57.38A5.473,5.473,0,0,1,53.2,58.563a6.963,6.963,0,0,1-1.533-4.944A6.963,6.963,0,0,1,53.2,48.675a5.473,5.473,0,0,1,4.178-1.622Zm-2.517,2.541a3.064,3.064,0,0,0-2.507.949,4.847,4.847,0,0,0-.786,3.095,4.753,4.753,0,0,0,.786,3.08,3.14,3.14,0,0,0,2.507.934H59.9a3.088,3.088,0,0,0,2.5-.934,4.784,4.784,0,0,0,.8-3.08,4.838,4.838,0,0,0-.786-3.095,3.094,3.094,0,0,0-2.5-.949Z" transform="translate(-36.66 -27.994)" fill="#c62a20"/>
    <path id="Tracciato_7" data-name="Tracciato 7" d="M99.7,35.5V48.74a6.244,6.244,0,0,1-1.231,4.252,4.593,4.593,0,0,1-3.6,1.384H91.225a5.438,5.438,0,0,1-4.178-1.622,6.948,6.948,0,0,1-1.538-4.944,6.948,6.948,0,0,1,1.538-4.944,5.438,5.438,0,0,1,4.178-1.622h5.809V35.5ZM94.093,51.815a2.934,2.934,0,0,0,2.269-.751,3.615,3.615,0,0,0,.672-2.442v-4.87H91.473a3.073,3.073,0,0,0-2.507.949A4.847,4.847,0,0,0,88.18,47.8a4.753,4.753,0,0,0,.786,3.08,3.147,3.147,0,0,0,2.507.934Z" transform="translate(-53.769 -22.161)" fill="#c62a20"/>
    <path id="Tracciato_8" data-name="Tracciato 8" d="M130.124,47.048a4.626,4.626,0,0,1,3.392,1.058,4.064,4.064,0,0,1,1.048,2.966,3.718,3.718,0,0,1-1.023,2.808,4.922,4.922,0,0,1-3.461.989h-6.239v.954a1.884,1.884,0,0,0,.46,1.31,2.027,2.027,0,0,0,1.562.494h8.054v2.566h-8.054a6.1,6.1,0,0,1-2.111-.321,3.757,3.757,0,0,1-1.419-.91,3.486,3.486,0,0,1-.811-1.374,5.651,5.651,0,0,1-.252-1.73V51.389a5.651,5.651,0,0,1,.252-1.721,3.461,3.461,0,0,1,.811-1.384,3.7,3.7,0,0,1,1.419-.91,5.977,5.977,0,0,1,2.111-.326Zm-6.284,5.76h6.195a2.121,2.121,0,0,0,1.508-.425,1.518,1.518,0,0,0,.435-1.147,1.617,1.617,0,0,0-.46-1.2,1.948,1.948,0,0,0-1.419-.45h-4.237a2.007,2.007,0,0,0-1.562.524,1.908,1.908,0,0,0-.46,1.3Z" transform="translate(-71.849 -27.999)" fill="#c62a20"/>
    <path id="Tracciato_9" data-name="Tracciato 9" d="M183.552,47.041a7.219,7.219,0,0,1,5.013,1.508,5.452,5.452,0,0,1,1.646,4.252v7.416h-2.67V52.8a3.016,3.016,0,0,0-.934-2.393,4.564,4.564,0,0,0-3.031-.826h-3.09V60.207h-2.67V49.582h-6.684c-.213,0-.321.129-.321.376V60.207h-2.645V49.088a2.333,2.333,0,0,1,.425-1.612,1.938,1.938,0,0,1,1.419-.435Z" transform="translate(-95.553 -27.992)" fill="#fff"/>
    <path id="Tracciato_10" data-name="Tracciato 10" d="M228.374,47.048a6,6,0,0,1,2.1.326,3.757,3.757,0,0,1,1.434.91,3.461,3.461,0,0,1,.811,1.384,5.81,5.81,0,0,1,.247,1.721v6.185a5.763,5.763,0,0,1-.109,1.221,1.691,1.691,0,0,1-.415.811,1.765,1.765,0,0,1-.836.46,5.186,5.186,0,0,1-1.355.148h-6.16a4.549,4.549,0,0,1-3.382-1.073,4.064,4.064,0,0,1-1.033-2.966,4.973,4.973,0,0,1,.237-1.6,2.793,2.793,0,0,1,.761-1.182,3.5,3.5,0,0,1,1.37-.751,7.139,7.139,0,0,1,2.072-.262h6.259v-.989a1.889,1.889,0,0,0-.465-1.3,1.978,1.978,0,0,0-1.557-.524h-7.881V47.048Zm1.271,10.6c.494,0,.727-.227.727-.677V54.5h-6.21a2.106,2.106,0,0,0-1.483.41,1.518,1.518,0,0,0-.425,1.137,1.587,1.587,0,0,0,.425,1.157,1.923,1.923,0,0,0,1.424.44Z" transform="translate(-121.597 -27.999)" fill="#fff"/>
    <path id="Tracciato_11" data-name="Tracciato 11" d="M253.275,43.865V40.75h2.665v3.115h3.644v2.541H255.94V52.64a2.2,2.2,0,0,0,.415,1.547,1.829,1.829,0,0,0,1.355.425h1.824v2.418h-2.348a6.126,6.126,0,0,1-1.76-.222,2.62,2.62,0,0,1-1.206-.752,3.194,3.194,0,0,1-.7-1.394,8.959,8.959,0,0,1-.223-2.17V46.406h-1.8V43.865Z" transform="translate(-137.693 -24.815)" fill="#fff"/>
    <path id="Tracciato_12" data-name="Tracciato 12" d="M275.69,37v3.07H273V37Zm-.025,4.944V55.135H273V41.969Z" transform="translate(-148.564 -22.919)" fill="#fff"/>
    <path id="Tracciato_13" data-name="Tracciato 13" d="M297.284,47.05v2.541h-6.531a3.073,3.073,0,0,0-2.507.949,4.847,4.847,0,0,0-.786,3.095,4.753,4.753,0,0,0,.786,3.08,3.147,3.147,0,0,0,2.507.934h6.531v2.566h-6.778a5.438,5.438,0,0,1-4.178-1.622,6.948,6.948,0,0,1-1.538-4.944,6.948,6.948,0,0,1,1.538-4.944,5.438,5.438,0,0,1,4.178-1.622Z" transform="translate(-154.525 -28.001)" fill="#fff"/>
    <path id="Tracciato_14" data-name="Tracciato 14" d="M324.558,47.048a5.972,5.972,0,0,1,2.091.326,3.683,3.683,0,0,1,1.434.91,3.4,3.4,0,0,1,.811,1.384,5.65,5.65,0,0,1,.252,1.721v6.185a5.73,5.73,0,0,1-.114,1.221,1.686,1.686,0,0,1-.41.811,1.79,1.79,0,0,1-.836.46,5.2,5.2,0,0,1-1.36.148h-6.16a4.531,4.531,0,0,1-3.377-1.073,4.044,4.044,0,0,1-1.038-2.966,4.974,4.974,0,0,1,.237-1.6,2.793,2.793,0,0,1,.761-1.182,3.52,3.52,0,0,1,1.374-.751,7.1,7.1,0,0,1,2.067-.262h6.259v-.989a1.908,1.908,0,0,0-.46-1.3,1.978,1.978,0,0,0-1.557-.524h-7.881V47.048Zm1.251,10.6c.494,0,.722-.227.722-.677V54.5h-6.19a2.091,2.091,0,0,0-1.483.41,1.483,1.483,0,0,0-.425,1.137,1.567,1.567,0,0,0,.455,1.162,1.918,1.918,0,0,0,1.419.44Z" transform="translate(-170.226 -27.999)" fill="#fff"/>
    <path id="Tracciato_15" data-name="Tracciato 15" d="M171.588,88.217v.949h-2.729a.7.7,0,0,0-.494.143.534.534,0,0,0-.153.42.494.494,0,0,0,.148.4.806.806,0,0,0,.554.138h1.162a2.571,2.571,0,0,1,.845.114,1.364,1.364,0,0,1,.524.3.989.989,0,0,1,.267.44,1.929,1.929,0,0,1,.074.544,1.977,1.977,0,0,1-.089.6,1.117,1.117,0,0,1-.287.494,1.345,1.345,0,0,1-.494.311,2.18,2.18,0,0,1-.737.109h-2.872v-.989h2.872a.771.771,0,0,0,.494-.124.645.645,0,0,0-.015-.84.89.89,0,0,0-.539-.129h-1.167a2.655,2.655,0,0,1-.84-.114,1.35,1.35,0,0,1-.494-.321,1.073,1.073,0,0,1-.267-.465,1.942,1.942,0,0,1-.074-.539,1.453,1.453,0,0,1,.356-1.058,1.676,1.676,0,0,1,1.236-.386Z" transform="translate(-95.108 -48.808)" fill="#fff"/>
    <path id="Tracciato_16" data-name="Tracciato 16" d="M183.36,88.23l-2.966,6.922h-1.088l.925-2.161a1.033,1.033,0,0,1-.608-.138.989.989,0,0,1-.316-.47l-1.656-4.148H178.7l1.483,3.673a.306.306,0,0,0,.114.163.381.381,0,0,0,.2.035h.129L182.3,88.23Z" transform="translate(-100.355 -48.821)" fill="#fff"/>
    <path id="Tracciato_17" data-name="Tracciato 17" d="M194.588,88.217v.949h-2.729a.7.7,0,0,0-.494.143.534.534,0,0,0-.153.42.494.494,0,0,0,.148.4.806.806,0,0,0,.554.138h1.162a2.571,2.571,0,0,1,.845.114,1.364,1.364,0,0,1,.524.3.988.988,0,0,1,.267.44,1.927,1.927,0,0,1,.074.544,1.977,1.977,0,0,1-.089.6,1.117,1.117,0,0,1-.287.494,1.345,1.345,0,0,1-.494.311,2.18,2.18,0,0,1-.737.109h-2.872v-.989h2.872a.771.771,0,0,0,.494-.124.645.645,0,0,0-.015-.84.89.89,0,0,0-.539-.129h-1.167a2.63,2.63,0,0,1-.84-.114,1.276,1.276,0,0,1-.494-.321,1.073,1.073,0,0,1-.267-.465,1.944,1.944,0,0,1-.074-.539,1.453,1.453,0,0,1,.356-1.058,1.676,1.676,0,0,1,1.236-.386Z" transform="translate(-106.737 -48.808)" fill="#fff"/>
    <path id="Tracciato_18" data-name="Tracciato 18" d="M201.407,87.032V85.86h.989v1.172h1.37v.949H202.4V90.32a.84.84,0,0,0,.158.583.7.7,0,0,0,.494.158h.682v.9h-.89a2.146,2.146,0,0,1-.658-.084.989.989,0,0,1-.455-.282,1.221,1.221,0,0,1-.262-.494,3.46,3.46,0,0,1-.084-.816V87.981h-.672v-.949Z" transform="translate(-112.014 -47.623)" fill="#fff"/>
    <path id="Tracciato_19" data-name="Tracciato 19" d="M211.967,88.222a1.725,1.725,0,0,1,1.271.4,1.528,1.528,0,0,1,.4,1.117,1.394,1.394,0,0,1-.386,1.053,1.829,1.829,0,0,1-1.29.371h-2.343v.351a.692.692,0,0,0,.173.494.747.747,0,0,0,.583.188h3.021v.964H210.37a2.3,2.3,0,0,1-.791-.119,1.483,1.483,0,0,1-.534-.341,1.32,1.32,0,0,1-.3-.494,2.1,2.1,0,0,1-.094-.653V89.869a2.116,2.116,0,0,1,.094-.648,1.3,1.3,0,0,1,.3-.494,1.483,1.483,0,0,1,.534-.341,2.3,2.3,0,0,1,.791-.119Zm-2.353,2.161h2.314a.791.791,0,0,0,.569-.163.569.569,0,0,0,.163-.43.593.593,0,0,0-.168-.445.732.732,0,0,0-.534-.173H210.37a.747.747,0,0,0-.583.2.707.707,0,0,0-.173.494Z" transform="translate(-116.028 -48.813)" fill="#fff"/>
    <path id="Tracciato_20" data-name="Tracciato 20" d="M226.974,88.221a2.709,2.709,0,0,1,1.879.564,2.057,2.057,0,0,1,.613,1.6v2.774h-.989V90.382a1.122,1.122,0,0,0-.351-.9,1.691,1.691,0,0,0-1.137-.311h-1.157v3.985h-.989V89.171h-2.507c-.084,0-.124.049-.124.143v3.842h-.989V88.988a.845.845,0,0,1,.163-.6.712.712,0,0,1,.529-.163Z" transform="translate(-122.383 -48.813)" fill="#fff"/>
    <path id="Tracciato_21" data-name="Tracciato 21" d="M243.929,84.46v1.152h-.989V84.46Zm0,1.859v4.944h-.989V86.319Z" transform="translate(-133.365 -46.915)" fill="#c62a20"/>
    <path id="Tracciato_22" data-name="Tracciato 22" d="M250.534,88.211a2.68,2.68,0,0,1,1.874.569,2.052,2.052,0,0,1,.613,1.592V93.15h-.989V90.372a1.127,1.127,0,0,0-.351-.895,1.691,1.691,0,0,0-1.137-.311h-1.617c-.079,0-.124.049-.124.143V93.15h-.989V88.983a.875.875,0,0,1,.158-.6.717.717,0,0,1,.534-.168Z" transform="translate(-135.828 -48.807)" fill="#c62a20"/>
    <path id="Tracciato_23" data-name="Tracciato 23" d="M260.817,87.027V85.86h.989v1.167h1.369v.954h-1.369V90.32a.841.841,0,0,0,.158.583.7.7,0,0,0,.494.158h.682v.9h-.89a2.334,2.334,0,0,1-.658-.084.989.989,0,0,1-.455-.282,1.216,1.216,0,0,1-.262-.524,3.4,3.4,0,0,1-.084-.811V87.981h-.672v-.954Z" transform="translate(-142.052 -47.623)" fill="#c62a20"/>
    <path id="Tracciato_24" data-name="Tracciato 24" d="M271.372,88.212a1.711,1.711,0,0,1,1.271.4,1.518,1.518,0,0,1,.4,1.117,1.394,1.394,0,0,1-.386,1.053,1.854,1.854,0,0,1-1.29.366h-2.348V91.5a.692.692,0,0,0,.173.494.766.766,0,0,0,.583.188h3.021v.964H269.77a2.3,2.3,0,0,1-.791-.119,1.483,1.483,0,0,1-.534-.341,1.3,1.3,0,0,1-.3-.494,2.05,2.05,0,0,1-.094-.648V89.868a2.091,2.091,0,0,1,.094-.648,1.3,1.3,0,0,1,.3-.494,1.439,1.439,0,0,1,.534-.341,2.289,2.289,0,0,1,.791-.124Zm-2.358,2.161h2.319a.786.786,0,0,0,.564-.158.568.568,0,0,0,.163-.43.6.6,0,0,0-.168-.45.752.752,0,0,0-.534-.168H269.77a.747.747,0,0,0-.583.2.7.7,0,0,0-.173.494Z" transform="translate(-146.061 -48.808)" fill="#c62a20"/>
    <path id="Tracciato_25" data-name="Tracciato 25" d="M283.63,88.192a1.716,1.716,0,0,1,1.35.494,2.358,2.358,0,0,1,.465,1.6v2.843a3.58,3.58,0,0,1-.1.895,1.33,1.33,0,0,1-.321.608,1.251,1.251,0,0,1-.578.346,3.169,3.169,0,0,1-.875.1h-2.937v-.954h2.828a1.028,1.028,0,0,0,.766-.232,1.117,1.117,0,0,0,.213-.766V92.9h-2.18a2.086,2.086,0,0,1-1.562-.583,3.036,3.036,0,0,1,0-3.565,2.1,2.1,0,0,1,1.562-.583Zm-2.507,2.4a1.686,1.686,0,0,0,.292,1.1,1.182,1.182,0,0,0,.939.341h2.086V90.3a1.276,1.276,0,0,0-.252-.88,1.132,1.132,0,0,0-.85-.272h-.989a1.182,1.182,0,0,0-.939.341A1.7,1.7,0,0,0,281.124,90.59Z" transform="translate(-152.164 -48.788)" fill="#c62a20"/>
    <path id="Tracciato_26" data-name="Tracciato 26" d="M297.047,88.214v.954h-1.716a.564.564,0,0,0-.638.638v3.347H293.7v-3.5a1.646,1.646,0,0,1,.307-1.1,1.335,1.335,0,0,1,1.033-.346Z" transform="translate(-159.029 -48.81)" fill="#c62a20"/>
    <path id="Tracciato_27" data-name="Tracciato 27" d="M305.48,88.22a2.3,2.3,0,0,1,.786.124,1.385,1.385,0,0,1,.539.341,1.315,1.315,0,0,1,.307.494,2.255,2.255,0,0,1,.089.648v2.319a2.021,2.021,0,0,1-.04.455.643.643,0,0,1-.153.307.7.7,0,0,1-.316.173,2.052,2.052,0,0,1-.494.054h-2.309a1.706,1.706,0,0,1-1.29-.376,1.508,1.508,0,0,1-.391-1.1,1.834,1.834,0,0,1,.089-.6,1.053,1.053,0,0,1,.287-.445,1.285,1.285,0,0,1,.494-.282,2.694,2.694,0,0,1,.776-.1H306.2v-.371a.722.722,0,0,0-.173-.494.761.761,0,0,0-.583-.2h-2.966V88.22Zm.494,3.955c.183,0,.272-.084.272-.252v-.9h-2.329a.791.791,0,0,0-.554.153.578.578,0,0,0-.158.425.6.6,0,0,0,.158.435.732.732,0,0,0,.534.163Z" transform="translate(-163.33 -48.816)" fill="#c62a20"/>
    <path id="Tracciato_28" data-name="Tracciato 28" d="M314.792,87.027V85.86h.989v1.167h1.365v.954h-1.365V90.32a.84.84,0,0,0,.153.583.687.687,0,0,0,.494.158h.682v.9h-.89a2.309,2.309,0,0,1-.658-.084.989.989,0,0,1-.455-.282,1.217,1.217,0,0,1-.262-.524,3.4,3.4,0,0,1-.084-.811V87.981h-.672v-.954Z" transform="translate(-169.339 -47.623)" fill="#c62a20"/>
    <path id="Tracciato_29" data-name="Tracciato 29" d="M324.949,88.218a2.057,2.057,0,0,1,1.562.613,3.278,3.278,0,0,1,0,3.718,2.052,2.052,0,0,1-1.562.608H323.91a2.042,2.042,0,0,1-1.562-.6,3.283,3.283,0,0,1,0-3.723,2.042,2.042,0,0,1,1.562-.608Zm-.944.954a1.152,1.152,0,0,0-.939.356,1.814,1.814,0,0,0-.292,1.162,1.78,1.78,0,0,0,.292,1.152,1.152,1.152,0,0,0,.939.351h.845a1.162,1.162,0,0,0,.944-.351,1.809,1.809,0,0,0,.292-1.152,1.844,1.844,0,0,0-.292-1.162,1.162,1.162,0,0,0-.944-.356Z" transform="translate(-173.221 -48.814)" fill="#c62a20"/>
    <path id="Tracciato_30" data-name="Tracciato 30" d="M338.281,88.214v.954h-1.74a.564.564,0,0,0-.638.638v3.347h-.989v-3.5a1.647,1.647,0,0,1,.3-1.1,1.335,1.335,0,0,1,1.033-.346Z" transform="translate(-179.864 -48.81)" fill="#c62a20"/>
  </g>
</svg>
